70
0.1241387525846931
0.1850941862294733
0.2266570659150614
0.2537846337634526
0.2696063332903594
0.2766952580576588
0.2771053961662387
0.2725119436667416
0.2642563068665248
0.2534083256827556
0.2408132558612777
0.2271337934914069
0.2128843994943722
0.1984598073511033
0.1841583624319744
0.1702011365442464
0.1567475433806005
0.1439080756334511
0.1317546784022778
0.1203291779318553
0.1096501137928458
0.09971825887607269
0.09052106289491314
0.08203621306852489
0.07423447224901338
0.06708192654894686
0.06054175157573981
0.05457558719886568
0.04914459499919244
0.04421025942563438
0.03973498284187775
0.03568251564963137
0.03201825523449493
0.02870944131942093
0.0257252702187289
0.0230369462781077
0.02061768531491335
0.01844268201236629
0.01648905086763453
0.0147357483605375
0.0131634824249722
0.01175461400937106
0.0104930544560075
0.009364161570679708
0.008354636560267864
0.007452423457771179
0.006646612209454343
0.005927346247426718
0.005285735097217297
0.004713772360091654
0.004204259252242089
0.003750733767332014
0.003347405445973696
0.002989095677608943
0.002671183419666985
0.002389556190303364
0.002140566169984156
0.001920991230761858
0.001728000702173719
0.001559125671687784
0.001412233631920672
0.001285507276088981
0.0011774273192214
0.001086759294503026
0.001012544124399043
0.000954092829809793
0.0009109850356337874
0.0008830735402517933
0.0008704929108316276
0.0008736888441892883
70
-0.5348248019909956
-0.5252680219415674
-0.3998471763841568
-0.2533775195299506
-0.1201806626627654
-0.01456804701048253
0.06192713929175345
0.1123670258768858
0.1417843221089402
0.1553236360959815
0.1575677714605585
0.1522527090242911
0.1422605098865868
0.1297126822004658
0.1161061896239554
0.1024497339179844
0.08938542500582851
0.07728926103781283
0.06635044752162596
0.05663173874934879
0.04811403468519194
0.04072845116421657
0.03437876924366592
0.02895668340335498
0.02435178695298334
0.02045779444898317
0.01717613442795213
0.01441775051038586
0.01210371896672858
0.01016511584005719
0.008542436090451931
0.007184771436566372
0.006048884394107705
0.005098266881316659
0.004302237434572485
0.003635107562347033
0.003075432019273331
0.002605347552477781
0.002209998295675351
0.001877042259172267
0.00159623141928704
0.001359057135817345
0.001158452591288006
0.0009885443550999079
0.0008444458291121588
0.0007220860963493404
0.0006180684868657327
0.0005295539426207317
0.0004541649777737009
0.0003899066773866832
0.0003351017531839643
0.0002883371795467097
0.0002484203755891258
0.0002143432826494567
0.0001852530280769888
0.0001604281695897656
0.0001392597957116143
0.0001212370624172024
0.0001059369844292636
9.301886558474495e-05
8.22237488620867e-05
7.338091632033628e-05
6.642244553717407e-05
6.140879677173495e-05
5.857585451243924e-05
5.840340965548024e-05
6.173758528309984e-05
6.993606236355918e-05
8.517565567772636e-05
0.0001105732739305036
70
0.7873928899586637
-0.1024900937752324
-0.3651918410767692
-0.3508600164543466
-0.2178221161576704
-0.0933030531605753
-0.001528391836680711
0.05413154312358023
0.08291588713181192
0.09360692962762704
0.09341407061308403
0.0872212869090967
0.07819186900612744
0.06823155365407113
0.0584333059479926
0.04937125515230128
0.0413046687289698
0.03430636488039561
0.02834466379041276
0.02333364705907226
0.0191638016275086
0.01572002326614458
0.01289177038213062
0.01057829877320319
0.008690893365213217
0.007153307578461758
0.005901185870994257
0.004880960802679193
0.004048529241610119
0.003367892553273291
0.002809865804643056
0.002350910841053383
0.001972115675407704
0.001658323344371513
0.001397402045649807
0.001179642647943124
0.0009972672700260599
0.0008440323985905956
0.0007149109610891393
0.0006058393558076329
0.0005135172626868992
0.0004352499018758925
0.0003688241335068992
0.0003124113395631691
0.0002644913699262793
0.0002237929692162801
0.0001892470441747666
0.0001599498999551625
0.0001351341989203379
0.0001141458865607489
9.642573290612201e-05
8.149443136448404e-05
6.894046573428302e-05
5.84101106966785e-05
4.959911871927556e-05
4.224574653410995e-05
3.612474608109353e-05
3.104249836814464e-05
2.683184409137012e-05
2.334955242649407e-05
2.046878383604822e-05
1.808423694678913e-05
1.612155804523178e-05
1.452085823245456e-05
1.329645111395682e-05
1.254739689021334e-05
1.296753755754943e-05
1.63699927722423e-05
3.031608000489773e-05
7.519035021027378e-05
70
-0.2433298753942672
0.7923137808362574
-0.5301580151844903
-0.07600920108167235
-0.1334538205370535
-0.02388587091848566
-0.001382044092866968
0.0241496960180316
0.03179665489283322
0.03527998121913053
0.03432724122697224
0.03175250622392189
0.02821230682897415
0.0244672808689065
0.02081824130879899
0.01747560491447255
0.01451661004028509
0.01196712255133649
0.009810894170215139
0.00801390220890597
0.006532409330669962
0.005321092293041505
0.004336513132144757
0.003539438565545487
0.002895639746341841
0.002376055619932064
0.00195648965262459
0.001617100596098826
0.001341809940989726
0.001117705978548446
0.0009344923283490707
0.0007839989845639299
0.0006597650110321062
0.0005566897741678184
0.0004707476060252635
0.0003987573485804571
0.0003381986527998828
0.0002870668116993144
0.0002437590096737269
0.0002069857106094497
0.0001757019928647377
0.0001490545300332744
0.0001263407613968507
0.0001069774918080574
9.047674128196405e-05
7.642715606033205e-05
6.447964183297093e-05
5.433624388594908e-05
4.574142354812964e-05
3.847526328170684e-05
3.234793049486672e-05
2.719541687593835e-05
2.287573554713741e-05
1.926617306483193e-05
1.626056195350603e-05
1.376685263205332e-05
1.170709267188206e-05
1.000914801030787e-05
8.624448051819597e-06
7.478859126539924e-06
6.577240231056496e-06
5.816878159328018e-06
5.158558262701238e-06
4.772050425787319e-06
4.058838849386555e-06
4.466542496668454e-06
2.568162897641589e-06
6.694866122828148e-06
-6.46616953180949e-06
4.448282343243158e-05
60
0.1714627965896126
0.2677376555807128
0.3271876104418974
0.3544017643699342
0.3571345298733082
0.3427495065759164
0.3177059976728932
0.2869333082984775
0.2540275729107216
0.2214042645062151
0.1905853912797789
0.1624241294396362
0.1373103462095322
0.1153228358238974
0.0963461026315188
0.08015218096024147
0.06645766524858618
0.05496106144525169
0.04536641344789826
0.03739706335750483
0.03080280826800642
0.02536266561193983
0.0208848993284553
0.01720541417269146
0.01418528461616475
0.01170791127134489
0.009676120070022118
0.008009389940360136
0.006641311442482456
0.005517322436185099
0.004592732255294276
0.003831024554826215
0.003202417440101364
0.00268265384977702
0.002251993511937976
0.001894378422957143
0.001596745780238301
0.001348464915367954
0.001140877626258246
0.0009669241255752777
0.0008208394700742926
0.0006979077354777698
0.0005942633304364591
0.0005067307019988795
0.0004326952947617645
0.0003700000140621474
0.000316862649260285
0.0002718107774543476
0.0002336316455793365
0.0002013355019983491
0.0001741318704275642
0.000151419616586014
0.0001327931591648614
0.0001180701844797127
0.0001073485957253401
0.0001011092819385162
0.0001003822955319396
0.0001070251878279203
0.0001241377028927639
0.0001567583873476315
60
-0.7372716715110764
-0.5061197065743885
-0.1946965778872322
0.004254099789140348
0.1178808885541361
0.1625818637053127
0.172004421240907
0.1614192710224017
0.143083773568585
0.1222713213316118
0.1022473439185944
0.08420631528812961
0.06865335002741185
0.05556440419300456
0.04474637894734901
0.03590969602948619
0.02875720168700667
0.02300556681924079
0.01840356016750543
0.01473442425401384
0.01181611611635939
0.009498055606188729
0.007657401746867261
0.006194931674741591
0.005031186547759484
0.004102967585055275
0.003360293938036354
0.002763817214798713
0.002282668078690126
0.001892689896876009
0.001575007242756604
0.001314878569230082
0.001100784378878317
0.0009237084858942344
0.0007765750171309944
0.0006538100851557482
0.0005510020839452768
0.0004646395470518044
0.0003919094641564291
0.0003305424997869484
0.0002786943519334514
0.0002348548420057549
0.0001977781841313848
0.0001664293596720347
0.0001399427323198662
0.00011758990498276
9.875461936837993e-05
8.29130127465811e-05
6.961782286512709e-05
5.848631973264188e-05
4.91891054854605e-05
4.14455192806237e-05
3.50098479165734e-05
2.969001853672993e-05
2.531054568207649e-05
2.189001346838885e-05
1.96346800859874e-05
2.070412808176617e-05
3.233677251855447e-05
8.972137174068006e-05
60
-0.5590801998758896
0.7881387785198143
-0.1743703143938222
0.1288610475526728
-0.09588917263044586
-0.01816611892903294
-0.06041594571366873
-0.03725572522069488
-0.04057040091622333
-0.03083033951904288
-0.02725885794504751
-0.02165700129062119
-0.01790579147557851
-0.01428263196365478
-0.0114987400328741
-0.009138822528995363
-0.007277715305478332
-0.005772371354934511
-0.004585233409309327
-0.003643536523672137
-0.002903299232827484
-0.002320362029827349
-0.00186228715579791
-0.001501510245449956
-0.001216881975680642
-0.0009914586481431734
-0.000812167836729195
-0.0006687930116543565
-0.000553468035293269
-0.0004601105884255931
-0.000384042378797745
-0.0003216554486829164
-0.0002701671286432009
-0.0002274234996530468
-0.0001917509172573048
-0.0001618417013635911
-0.0001366671409516031
-0.000115411802784226
-9.742355584810542e-05
-8.217609105608225e-05
-6.924053467144974e-05
-5.826401248274324e-05
-4.895367278881243e-05
-4.106409350104692e-05
-3.438851311039452e-05
-2.875097661321286e-05
-2.400120118695248e-05
-2.001172805444258e-05
-1.666653480019781e-05
-1.388500552976882e-05
-1.154328573767462e-05
-9.674387032851195e-06
-7.957205925532411e-06
-6.964607696275426e-06
-5.151620431739587e-06
-6.029848799787248e-06
-1.164874596829658e-06
-1.028182635939114e-05
1.332693474136379e-05
-3.949054017632969e-05
60
0.5394605950261184
0.5181380302969095
0.42786308862048
0.3325551739144268
0.252584029738054
0.1900127403417627
0.1426102199878609
0.1070828501069408
0.08054764994109367
0.06071209738178258
0.04585727724663725
0.03470870943166478
0.02632686001811189
0.02001609453303471
0.01525922540800246
0.01166980599049156
0.008958114135676633
0.006906451586866287
0.005351095823147064
0.004168920332010074
0.003267395274941413
0.002577058515124172
0.002045826539753321
0.001634688120703775
0.001314445666789538
0.001063252949326429
0.0008647588922596162
0.0007067121134252965
0.0005799149661078068
0.0004774418856770864
0.0003940569183603595
0.0003257808098440881
0.000269569982873789
0.0002230789265384304
0.0001844845593451171
0.0001523564959815255
0.0001255612194118986
0.0001031912348552283
8.451259281707834e-05
6.892589733752011e-05
5.593720369476654e-05
4.513616574923711e-05
3.617949989862964e-05
2.877835343441189e-05
2.268854781586375e-05
1.770294772609526e-05
1.364541186431729e-05
1.036593098080957e-05
7.736666936686542e-06
5.648686931862936e-06
4.009238668744265e-06
2.73946557269081e-06
1.772456915641907e-06
1.05162541345624e-06
5.292344507581645e-07
1.653568571981366e-07
-7.298193033739173e-08
-2.002161856918219e-07
1.355124361418585e-08
5.611914509411493e-06
